Filterschritt,Pfeil,IGNIS,Koeln ges. ,Aachen
Import,599583,152391,751974,176430
NaN im Index löschen,577055,150924,727979,176430
Beschnitt auf jew. gültigen Datumsbereich pro Quelle,576036,150924,726960,176430
"Fahrzeugtyp nur: [""RTW"", ""NEF"", ""KTW"", ""ITW""]",448324,121054,569378,176052
"Köln: Stichworte entfernen: [""INFO"",""INFORET"",""TESTX1"",""TEST373"",""TESTF1"",""TESTVGONG"",""D1"",""AMT"", ""PROBE"", ""RD1TH"", ""RD2TH"", ""RD1FEU"", ""RD2FEU""] 
Aachen: Einsatzarten entfernen: [""K"", ""A"", ""T"", ""P""]",431515,121049,552564,123874
Alarme => Einsätze,,,423321,94688
